[
  {
    "type": "heading",
    "defaultValue": "LIFT configuration"
  },
  {
    "type": "section",
    "items": [
      {
        "type": "heading",
        "defaultValue": "Colors"
      },
      {
        "type": "color",
        "messageKey": "BarColor",
        "defaultValue": "0xFF0000",
        "allowGray": false,
        "label": "Bar Color"
      },
      {
        "type": "color",
        "messageKey": "BackgroundColor",
        "defaultValue": "0x000000",
        "layout": "BLACK_WHITE",
        "label": "Background Color",
        "capabilities": [
          "COLOR"
        ]
      }
    ]
  },
  {
    "type": "section",
    "items": [
      {
        "type": "heading",
        "defaultValue": "Disconnect"
      },
      {
        "type": "toggle",
        "messageKey": "VibrateDisconnect",
        "defaultValue": true,
        "label": "Vibrate on Disconnect"
      }
    ]
  },
  {
    "type": "submit",
    "defaultValue": "Save Settings"
  }
]